{
  "name": "prutah",
  "frontendVersion": "0.1.847",
  "frontendReleaseVersion": "release-791",
  "frontendReleaseTestVersion": "release-test-0.0.34",
  "themeConfig": {
    "color": [{
      "name": "mainColor",
      "default": "#207d3f"
    }, {
      "name": "secondaryColor",
      "default": "#353b37"
    }, {
      "name": "headerColor",
      "default": "#207d3f"
    }, {
      "name": "highlightColor",
      "default": "#ff8a18"
    }, {
      "name": "loyaltyColor",
      "default": "#ce0a0a"
    }],
    "font": [{
      "name": "defaultFontFamily",
      "default": "'Open Sans','Almarai', 'Open Sans Hebrew'"
    }, {
      "name": "secondaryFontFamily",
      "default": "'Quicksand','Almarai', 'Open Sans Hebrew'"
    }, {
      "name": "creativeFontFamily",
      "default": "'Quicksand', 'Almarai','Open Sans Hebrew'"
    }]
  }
}
