<svg width="37" height="27" viewBox="0 0 37 27" xmlns="http://www.w3.org/2000/svg">
    <path d="M28.174 0.438586C27.9892 0.449756 27.8401 0.485362 27.7297 0.514746L2.13996 7.31838C0.974623 7.62848 0.264696 8.84569 0.578676 10.0094L4.18359 23.3882C4.36253 24.0513 4.84127 24.5638 5.42753 24.8225C5.68421 25.75 6.53101 26.4346 7.53463 26.4346H34.051C35.2541 26.4346 36.247 25.4417 36.247 24.2386V10.3902C36.247 9.18711 35.2541 8.19422 34.051 8.19422H32.0836L30.4334 2.06333C30.1586 1.04491 29.2024 0.376261 28.174 0.438586ZM28.2629 2.06333C28.5311 2.04709 28.7844 2.21673 28.8595 2.49491L30.408 8.19422H7.53463C6.33157 8.19422 5.33868 9.18711 5.33868 10.3902V21.4207L2.15265 9.59049C2.06681 9.27233 2.232 8.97933 2.55884 8.89236L28.1486 2.08872C28.2248 2.06845 28.2629 2.06333 28.2629 2.06333ZM7.53463 9.81897H27.9328V11.888C27.6644 11.6736 27.3735 11.4964 27.0697 11.3676C26.6888 11.206 26.277 11.1212 25.8638 11.1264C25.4506 11.1315 25.0345 11.2278 24.658 11.4437C23.9048 11.8756 23.4881 12.6672 23.3886 13.4874C23.2891 14.3075 23.4791 15.1956 23.9471 16.0006C24.0468 16.1721 24.161 16.3375 24.2772 16.4957H6.96343V10.3902C6.96343 10.0591 7.20357 9.81897 7.53463 9.81897ZM29.5576 9.81897H34.051C34.3821 9.81897 34.6222 10.0591 34.6222 10.3902V16.4957H33.2133C33.3299 16.3375 33.4436 16.1721 33.5433 16.0006C34.0113 15.1956 34.2013 14.3075 34.1018 13.4874C34.0023 12.6672 33.5729 11.8756 32.8198 11.4437C32.4432 11.2278 32.0398 11.1315 31.6266 11.1264C31.2134 11.1212 30.8016 11.206 30.4207 11.3676C30.117 11.4964 29.826 11.6736 29.5576 11.888V9.81897ZM25.9019 12.7511C26.0624 12.7509 26.2359 12.7809 26.435 12.8654C26.8334 13.0344 27.2628 13.3995 27.5647 13.9189C27.7877 14.3024 27.9099 14.7067 27.9328 15.0613C27.9325 15.074 27.9325 15.0867 27.9328 15.0994C27.9332 15.1078 27.9326 15.1165 27.9328 15.1248V16.4957H27.1712C27.1095 16.4754 27.0456 16.4626 26.9808 16.4576C26.5667 16.4426 25.7941 15.9509 25.3434 15.1756C25.0414 14.6562 24.9493 14.1141 25.0007 13.6904C25.0521 13.2668 25.2232 12.9944 25.4703 12.8527C25.5939 12.7818 25.7414 12.7514 25.9019 12.7511ZM31.5885 12.7511C31.7522 12.7514 31.8965 12.7818 32.0201 12.8527C32.2672 12.9944 32.4383 13.2668 32.4897 13.6904C32.5411 14.1141 32.4363 14.6562 32.1343 15.1756C31.6836 15.9509 30.9237 16.4425 30.5096 16.4576C30.4405 16.4616 30.3723 16.4744 30.3065 16.4957H29.5576V15.1756C29.5603 15.1375 29.5603 15.0994 29.5576 15.0613C29.579 14.7061 29.6891 14.304 29.913 13.9189C30.215 13.3995 30.6444 13.0344 31.0427 12.8654C31.2419 12.7809 31.4249 12.7509 31.5885 12.7511ZM6.96343 18.1204H26.0288C25.4667 18.684 25.0392 19.3681 24.8737 20.1894C24.852 20.2945 24.8513 20.4027 24.8714 20.5081C24.8916 20.6134 24.9323 20.7137 24.9912 20.8033C25.0501 20.8929 25.1261 20.97 25.2149 21.0303C25.3036 21.0905 25.4033 21.1326 25.5084 21.1543C25.6134 21.176 25.7217 21.1768 25.827 21.1566C25.9323 21.1364 26.0327 21.0957 26.1222 21.0367C26.2118 20.9778 26.2889 20.9017 26.3491 20.813C26.4093 20.7242 26.4515 20.6245 26.4731 20.5195C26.6042 19.8685 27.1902 19.198 27.9328 18.6789V24.8098H7.53463C7.20357 24.8098 6.96343 24.5697 6.96343 24.2386V18.1204ZM31.4743 18.1204H34.6222V24.2386C34.6222 24.5697 34.3821 24.8098 34.051 24.8098H29.5576V18.6789C30.2998 19.1973 30.8867 19.8711 31.0173 20.5195C31.0321 20.6301 31.0695 20.7366 31.1272 20.8322C31.1849 20.9278 31.2617 21.0104 31.3528 21.075C31.4439 21.1396 31.5473 21.1847 31.6567 21.2075C31.766 21.2303 31.8788 21.2303 31.9881 21.2076C32.0974 21.1849 32.2009 21.1398 32.292 21.0753C32.3832 21.0108 32.46 20.9282 32.5178 20.8327C32.5756 20.7371 32.6131 20.6307 32.6279 20.52C32.6427 20.4094 32.6346 20.2968 32.604 20.1894C32.4403 19.3765 32.0263 18.6886 31.4743 18.1204Z"/>
</svg>
