<svg xmlns="http://www.w3.org/2000/svg" viewBox="0 0 4 19.406">
  <path d="M1731,668.334V648.942c0.82,3.952,4,4.606,4,9.695S1731.82,664.381,1731,668.334Z" transform="translate(-1731 -648.938)"/>
</svg>
